"store","websites","attribute_set","type","categories","simples_skus","configurable_attributes","super_attribute_pricing","sku","has_options","name","meta_title","meta_description","image","small_image","thumbnail","url_key","url_path","page_layout","options_container","image_label","small_image_label","thumbnail_label","country_of_manufacture","msrp_enabled","msrp_display_actual_price_type","gift_message_available","gift_wrapping_available","product_brand","height","model","price","special_price","weight","msrp","gift_wrapping_price","color","status","is_recurring","visibility","tax_class_id","ves_vendor_featured","condition","warranty_period","warranty_type","aircon_type","description","short_description","meta_keyword","custom_layout_update","width","vendor_categories","length","special_from_date","special_to_date","news_from_date","news_to_date","custom_design_from","custom_design_to","qty","min_qty","use_config_min_qty","is_qty_decimal","backorders","use_config_backorders","min_sale_qty","use_config_min_sale_qty","max_sale_qty","use_config_max_sale_qty","is_in_stock","low_stock_date","notify_stock_qty","use_config_notify_stock_qty","manage_stock","use_config_manage_stock","stock_status_changed_auto","use_config_qty_increments","qty_increments","use_config_enable_qty_inc","enable_qty_increments","is_decimal_divided","stock_status_changed_automatically","use_config_enable_qty_increments","product_name","store_id","product_type_id","product_status_changed","product_changed_websites","resolution","display_size","display_type","number_of_hdmi_ports"
"admin","base","Air Conditioners","simple","Home Appliances/Heating & Cooling/Air Conditioners/Split Airconditioners","","","","asi/asu-9gss","0","Solstar Split Air Conditioners ASI/ASU 9GSS","","","","","","split-air-conditioners","split-air-conditioners-2386.html","No layout updates","Block after Info Column","","",""," ","Use config","Use config","No","No","SOLSTAR","315","","45995.0000","","20.0000","","","Black","Enabled","No","Catalog, Search","VAT Included","No","New","NIL","International Warranty","Split","0","0","","","218","","","","","","","","","3.0000","0.0000","1","0","0","1","1.0000","1","0.0000","1","1","","0.0000","1","0","1","0","1","0.0000","1","0","0","0","1","Solstar Split Air Conditioners ASI/ASU 9GSS","0","simple","1","","","","",""
"admin","base","Hair Tools","simple","Health & Beauty/Beauty Tools/Hair Removal","","","","er-217s751","0","Panasonic Men's Grooming ER-217S751","","","","","","hair-trimmers","hair-trimmers-2363.html","No layout updates","Block after Info Column","","",""," ","Use config","Use config","No","No","","253","","8095.0000","","1.0000","","","Black","Enabled","No","Catalog, Search","VAT Included","No","","NIL","International Warranty","","<ul><li>PANASONIC Beard Trimmer</li><li>Washable</li><li>14-step length adj</li><li>Thinning Function</li><li>Wide blade without stress on hair</li><li>Ergonomic design</li></ul>","<ul><li>Beard Trimmer</li><li>Washable</li><li>14-step length adj</li><li>Thinning Function</li><li>Wide blade</li></ul>","","","76","","","","","","","","","9.0000","0.0000","1","0","0","1","1.0000","1","0.0000","1","1","","0.0000","1","0","1","0","1","0.0000","1","0","0","0","1","Panasonic Men's Grooming ER-217S751","0","simple","1","","","","",""
"admin","base","Hair Tools","simple","Health & Beauty/Beauty Tools/Hair Removal","","","","er-gn30-k451","0","Panasonic Men's Grooming ER-GN30-K451","","","","","","hair-trimmers","hair-trimmers-2364.html","No layout updates","Block after Info Column","","",""," ","Use config","Use config","No","No","","160","","2995.0000","","1.0000","","","Black","Enabled","No","Catalog, Search","VAT Included","No","","NIL","International Warranty","","&lt;ul&gt;&lt;li&gt;PANASONIC Men's Nose &amp;amp; Ear Hair Trimmer with Improved Dual-Edge Blade and Vortex Cleaning System&lt;/li&gt;&lt;/ul&gt;","&lt;ul&gt;&lt;li&gt;Men's Nose &amp; Ear Hair Trimmer&lt;/li&gt;&lt;li&gt;  Dual-Edge Blade&lt;/li&gt;&lt;li&gt; Vortex Cleaning System&lt;/li&gt;&lt;/ul&gt;","","","60","","","","","","","","","15.0000","0.0000","1","0","0","1","1.0000","1","0.0000","1","1","","0.0000","1","0","1","0","1","0.0000","1","0","0","0","1","Panasonic Men's Grooming ER-GN30-K451","0","simple","1","","","","",""
"admin","base","TV","simple","Electronics","","","","24mt47v-pt","0","LG LED TV 24MT47V","","","","","","led-tvs","led-tvs-2336.html","No layout updates","Block after Info Column","","",""," ","Use config","Use config","No","No","LG","0","","25000.0000","","10.0000","","","","Enabled","No","Catalog, Search","VAT Included","No","New","NIL","International Warranty","","<ul><li> Screen size of 23.6 inches </li><li> Screen VA HD Display (1366x768) </li><li> 250 nits Brightness </li><li> 178/178 Viewing Angle </li></ul>","<ul><li>23.6 inches </li><li>VA HD Display</li><li> 178/178 Viewing Angle </li></ul>","","","0","","","","","","","","","628.0000","0.0000","1","0","0","1","1.0000","1","0.0000","1","1","","0.0000","1","0","1","0","1","0.0000","1","0","0","0","1","LG LED TV 24MT47V","0","simple","1","","","","",""
