sku,name,price,special_price,special_from_date,special_to_date,qty
32R300C,"SONY 32"" LED TV 32R300C",25300,23000,3/25/2017,4/24/2017,8
40R350C,"SONY 40"" LED TV 40R350C",39100,36000,3/25/2017,4/24/2017,8
40W650D,"SONY 40"" LED TV 40W650D",47150,45000,3/25/2017,4/24/2017,2
43X8000,"SONY 43"" 4K TV 43X8000",92000,"85,000",3/25/2017,4/24/2017,2
32J4003,"SAMSUNG 32"" LED TV 32J4003",24150,"27,500",3/25/2017,4/24/2017,2
48W650,"SONY 48"" LED TV 48W650",69000,"65,000",3/25/2017,4/24/2017,2
50W800C,"SONY 50"" LED TV 50W800C",103500,97000,3/25/2017,4/24/2017,2
55W650,"SONY 55"" LED TV 55W650",103500,"95,000",3/25/2017,4/24/2017,2
55W800C,"SONY 55"" LED TV 55W800C",126500,110000,3/25/2017,4/24/2017,2
55X7000,"SONY 55"" 4K TV 55X7000",143750,"115,000",3/25/2017,4/24/2017,2
55X8500,"SONY 55"" 4K TV 55X8500",149500,"135,000",3/25/2017,4/24/2017,2
60W600,"SONY 60"" LED TV 60W600",126500,"125,000",3/25/2017,4/24/2017,2
65x7500,"SONY 65"" 4K TV 65X7500",241500,"205,000",3/25/2017,4/24/2017,2
65x8500,"SONY 65"" 4K TV 65X8500",264500,"240,000",3/25/2017,4/24/2017,2
75x8500,"SONY 75"" 4K TV 75X8500",494500,"450,000",3/25/2017,4/24/2017,2
43W800C,"SONY 43"" LED TV 43W800C",70150,67000,3/25/2017,4/24/2017,2
49X8000,"SONY 49"" 4K LED TV 49X8000",138000,"107,000",3/25/2017,4/24/2017,2
40J5200-AK,"SAMSUNG 40"" SMART LED TV 40J5200-AK",44850,"40,000",3/25/2017,4/24/2017,2
55KU7350,Samsung 55'' 4K Curved UHD Smart LED TV - 55KU7350,140070,115000,3/25/2017,4/24/2017,2
