"name","status","qty","price","description","sku","type","short_description","attribute_set","weight","tax_class_id","length","width","height","visibility","categories","websites","product_brand_1"
"DJACK 32"" HD LED TV ","Enabled","2.0000","20149.0000","<p>This&nbsp; D-JACK LED 32'' TV&nbsp; is slimmer &amp; incorporates great aesthetic design&lrm;&lrm;.&lrm;&lrm;&nbsp; It looks beautiful from any angle and fits perfectly into your living room&lrm;&lrm;.&lrm;&lrm;&nbsp; Enjoy its vivid picture and dynamic sound in HD resolution&lrm;&lrm;.&lrm;&lrm; Revolutionize your entertainment with D-JACK today.&nbsp;</p>
<p><b>Stylish Design</b><b></b></p>
<p>You&lrm;&lrm;'&lrm;&lrm;ll love the stunning picture when it&lrm;&lrm;'&lrm;&lrm;s on and marvel at its appearance when it&lrm;&lrm;'&lrm;&lrm;s off&lrm;&lrm;.&lrm;&lrm;&nbsp;its sleek&lrm;&lrm;, &lrm;&lrm; elegant design will appeal to even the most refined sense of style&lrm;&lrm;.&lrm;&lrm;&nbsp;</p>
<p><b>USB &amp; HDMI Ports</b><b></b></p>
<p>Bring your favorite movies&lrm;&lrm;, &lrm;&lrm; music and pictures to the big screen with this slim 32 inch LED TV&lrm;&lrm;.&lrm;&lrm;&nbsp;It has a USB port which allows you to share all your content with friends and family&lrm;&lrm;.&lrm;&lrm; Clear audio and video is just a HDMI cable away and you can enjoy pure entertainment source from a laptop or a HDMI capable media device&lrm;.</p>
<p><b>No Stress Searching for Channels</b><b></b></p>
<p>It has Auto-Search functionality that does the channel search and save for you. It makes watching TV exactly what it should be;</p>
<p>&nbsp;</p>","32-hd-led-tv","simple","<ul>
<li>USB playback</li>
<li>Screen Size:&nbsp;32-inch</li>
<li>Steady Sound&lrm;&lrm;</li>
<li>Power Input&lrm;&lrm;:&lrm;&lrm; AC 100 &ndash; 240V</li>
<li>Energy saving</li>
</ul>","TV","16.0000","None","","","","Catalog, Search","Electronics/TV Audio & Video /Televisions/LED TVs","base","DJACK"
"Pop In Fransen Blow Dryer - Red","Enabled","2.0000","2289.0000","<div class=""list -features"">
<ul>
<li>Easy to handle</li>
<li>professional hair dryer</li>
<li>Power : over 1700 W</li>
<li>Temperature:&nbsp;4&nbsp;</li>
</ul>
</div>
<div class=""list -features"">
<div class=""title""></div>
</div>","PO157HBABEKCNAFAMZ","simple","<p>You can now own your personal hair dryer. It is handy,durable,produces low noise and it has light weight and compact design. This Ceriotti heavy duty hair dryer is extremely easy to handle with high air pressure. It has 4 different temperature options to choose from depending on the degree of dryness one needs</p>","Beauty Tools","0.3000","VAT Included","","","","Catalog, Search","Health & Beauty/Beauty Tools/Hair Styling","base",""
"Nova Professional Hair Trimmer - White & Grey","Enabled","2.0000","1099.0000","<div class=""list -features"">
<ul>
<li>Perfect for all-around outlining and fading</li>
<li>Equipped with extremely close-cutting blade</li>
<li>Contoured housing with high-speed motor</li>
<li>High-quality carbon-steel blades specially hardened for long cutting life</li>
<li>Excellent for dry shaving</li>
<li>Powerful magnetic motor runs cool and quiet</li>
</ul>
</div>
<div class=""list -features"">
<div class=""title""></div>
</div>","NO733HB15N92KNAFAMZ","simple","<p><span>The</span><span>&nbsp;Nova Brand&nbsp;</span><span>brings you this unique and professional Hair Trimmer that will help you get great results when cutting hair. This Nova Hair Trimmer's corded hair clippers draw power straight from the nearest electrical outlet to ensure that the clippers provide you with all of the power and reliability you need</span></p>","Beauty Tools","0.3500","VAT Included","","","","Catalog, Search","Health & Beauty/Beauty Tools/Hair Removal","base",""
"Nova Professional Hair Trimmer - Blue","Enabled","5.0000","1099.0000","<div class=""list -features"">
<ul>
<li>Perfect for all-around outlining and fading</li>
<li>Equipped with extremely close-cutting blade</li>
<li>Contoured housing with high-speed motor</li>
<li>High-quality carbon-steel blades specially hardened for long cutting life</li>
<li>Excellent for dry shaving</li>
<li>Powerful magnetic motor runs cool and quiet</li>
<li>Nova Brand Professional Hair Trimmer -Blue</li>
</ul>
</div>
<div class=""osh-table -no-border"">
<div class=""caption""></div>
<div class=""caption""></div>
<div class=""osh-row "">
<div class=""osh-col -head""></div>
</div>
</div>","NO733HBABIX6NAFAMZ","simple","<p><span>The</span><span>&nbsp;Nova Brand&nbsp;</span><span>brings you this unique and professional Hair Trimmer that will help you get great results when cutting hair. This Nova Hair Trimmer's corded hair clippers draw power straight from the nearest electrical outlet to ensure that the clippers provide you with all of the power and reliability you need.&nbsp;</span></p>","Beauty Tools","230.0000","None","","","","Catalog, Search","Health & Beauty/Beauty Tools/Hair Removal","base",""
"Turbo 2800 Hair Dryer - Black","Enabled","2.0000","4189.0000","<p><span style=""color: #808000; font-size: small;""><strong>Features</strong></span></p>
<ul>
<li>2 Speed - 4 Temperature Cold air</li>
<li>Air flow 40 ltrs/sec.</li>
<li>Very long file A.C. Motor power 100 W</li>
<li>Air temperature max. 160&deg;C</li>
<li>Double insulation Class II</li>
<li>Very low noise running</li>
<li>3 metres cable</li>
<li>Heating element with safety thermostat and special contrainer for insulation</li>
<li>Detachable air filter for cleaning</li>
</ul>
<p></p>
<p><span style=""color: #808000; font-size: small;""><strong>Power</strong></span></p>
<ul>
<li>230 V ~ 50/60 Hz 1500 W</li>
<li>110 V ~ 50/60 Hz 1500 W</li>
</ul>
<p>If you want it the professional way, do it with Boston. The Class II double insulation Boston Turbo 2800 is the ultimate hair dryer you need for excellent service. It has been engineered to offer the best hair drying while still cushioning you from heavy power bills. It features a 2 Speed - 4 Temperature Cold Air Function and has a 40 ltrs/sec. air flow capacity.</p>
<p><img src=""http://www.bostonette.com/site/wp-content/themes/greatio/timthumb.php?src=http://www.bostonette.com/site/wp-content/uploads/2010/10/turbo_2800.jpg&amp;h=318&amp;w=424&amp;zc=1&amp;q=100;"" alt=""image"" /></p>
<p>This hair dryer comes with a detachable air filter for easy cleaning and also a heating element with safety thermostat and special container for insulation. With the 3M cable, you can easily move around while working</p>","BO117HBABG5ANAFAMZ","simple","<ul>
<li>Great durable design</li>
<li>3 metres cable</li>
<li>2 Speed - 4 Temperature Cold air</li>
<li>Very low noise running</li>
<li>Black in colour</li>
</ul>","Beauty Tools","550.0000","VAT Included","","","","Catalog, Search","Health & Beauty/Beauty Tools/Hair Styling","base",""
"Ceriotti Heavy Duty Hair Dryer - Black","Enabled","2.0000","3895.0000","<div class=""list -features"">
<div class=""title"">You can now own your personal hair dryer. It is handy,durable,produces low noise and it has lightweight and compact design. This Ceriotti heavy duty hair dryer is extremely easy to handle with high air pressure. It has 4 different temperature options to choose from depending on the degree of dryness one needs.</div>
<h2>Strong Motor for Fast-working, Long-lasting Power</h2>
<p>Ideal for those on-the-go mornings, this dryer is powered by a salon-quality motor, so it works fast.It's also exceptionally durable and is estimated to last up to three times longer than standard dryers.</p>
<p></p>
<p><img src=""https://static.jumia.co.ke/cms/external/pet/CE464HBABEFENAFAMZ/2b099631d7ed098e5b2ef3ab122b835e_e322140b4591f5ddee6ff661cf88e17e62aeb238.jpg"" alt=""image"" /></p>
</div>
<div class=""list -features"">
<div class=""title""></div>
</div>","CE464HBABEFENAFAMZ","simple","<ul>
<li>Easy to handle</li>
<li>Professional hair dryer</li>
<li>Power : over 1700 W</li>
<li>Temperature:&nbsp;4&nbsp;</li>
</ul>","Beauty Tools","230.0000","None","","","","Catalog, Search","Health & Beauty/Beauty Tools/Hair Styling","base",""
"GDLITE Solar Lighting System - Black","Enabled","5.0000","7000.0000","<p>This GDLITE Solar Lighting System an essential item for home lighting and it's eco-friendly design means you're saving both the environment and your pocket.<span>&nbsp;</span>This kit comes with 3x 6V lamps to light up your home at night or when there is a blackout.<span>&nbsp;Order it today online on Duukaan.</span><br /><br /></p>
<p><span>Features</span></p>
<ul>
<li>Battery Type: Acid-Base</li>
<li>Capacity: 6B 40Ach</li>
<li>Incoming voltage: AC 220-240V, 50-60 Gerts - from the mains, DC 9V - from solar panels</li>
<li>Output voltage: DC 6V, USB: 5V, 0.5A</li>
<li>Charging time from the network: 13 hours</li>
<li>While charging from the solar panel (3W): 12 hours</li>
<li>Recharge time: 10 hours.</li>
<li>Charging indicator</li>
<li>Battery level indicator;</li>
<li>Connectors</li>
<li>Solar panel (3-7Vt)</li>
<li>USB: 5V, 0.5A</li>
<li>3 x 6V lamps</li>
</ul>","GDLITE Solar Lighting System ","simple","<div class=""list -features"">
<div class=""title"">KEY FEATURES</div>
<ul>
<li>Easy to install and use</li>
<li>Output voltage: DC 6V, USB: 5V, 0.5A</li>
<li>Recharge time: 10 hours.</li>
<li>3 x 6V lamps</li>
<li>USB: 5V, 0.5A</li>
</ul>
</div>
<div class=""list -features"">
<div class=""title"">WHAT'S IN THE BOX</div>
<ul>
<li>Solar Lighting System Kit</li>
</ul>
</div>
<div class=""osh-table -no-border"">
<div class=""caption"">SPECIFICATIONS OF SOLAR LIGHTING SYSTEM - BLACK</div>
<div class=""osh-row "">
<div class=""osh-col -head"">SKU</div>
<div class=""osh-col "">GD612HLABFSDNAFAMZ</div>
</div>
<div class=""osh-row "">
<div class=""osh-col -head"">Size (L x W x H cm)</div>
<div class=""osh-col "">150 x 110 x 50</div>
</div>
<div class=""osh-row "">
<div class=""osh-col -head"">Weight (kg)</div>
<div class=""osh-col "">0.88</div>
</div>
<div class=""osh-row "">
<div class=""osh-col -head"">Main material</div>
<div class=""osh-col -head"">-</div>
</div>
<div class=""osh-row "">
<div class=""osh-col -head"">Product warranty</div>
<div class=""osh-col "">1 Year&nbsp;</div>
</div>
</div>","Lights & Lamps","0.8800","","","","","Catalog, Search","Highlights/Best Seller,Highlights/Special,Highlights/New Arrivals,Home & Living/Lighting/Outdoor Lighting/Solar Powered Lights","base","GDLITE"
"Generic 14'' - 42'' - LCD Wall Mount - Black","Enabled","5.0000","3000.0000","<p><span>LCD Mount</span><span>&nbsp;is an easy to use and install, the Level Mount Wall Mount is designed to fit any&nbsp;</span><span>14-42"" Flat Panel TV</span><span>&nbsp;up to 56Kg. This Level Mount TV Wall Mount mounts in a tilt position and tilts up to 15 degrees swivels to position the screen for an optimal viewing experience. Everything needed for mounting is included in the box of this flat panel wall mount for 14"" to 42"" TVs: a built in bubble level, extension arms and mounting hardware.</span><span>&nbsp;Order this Item Now Online on Duukaan</span></p>","Generic 14-42 inch wall mount","simple","<div class=""list -features"">
<div class=""title"">KEY FEATURES</div>
<ul>
<li>Fits Flat Panel TVs 14-42 and up to 56kg.</li>
<li>For Indoor/Outdoor use</li>
<li>UL Listed/Approved</li>
<li>Built-in Bubble Level &amp; all Hardware included</li>
<li>Extension Arms</li>
<li>Mounts to Wood, Concrete or Metal</li>
</ul>
</div>
<div class=""list -features"">
<div class=""title"">WHAT'S IN THE BOX</div>
<ul>
<li>LCD/Plasma wall mount</li>
</ul>
</div>
<div class=""osh-table -no-border"">
<div class=""caption"">SPECIFICATIONS OF 14'' - 42'' - LCD WALL MOUNT - BLACK</div>
<div class=""osh-row "">
<div class=""osh-col -head"">SKU</div>
<div class=""osh-col "">JU689ELACHXYNAFAMZ</div>
</div>
<div class=""osh-row "">
<div class=""osh-col -head"">Weight (kg)</div>
<div class=""osh-col "">1.52</div>
</div>
<div class=""osh-row "">
<div class=""osh-col -head"">Main material</div>
<div class=""osh-col "">Metal</div>
</div>
</div>","TV Stands & Mounts","1.5200","None","","","","Catalog, Search","Electronics/TV Audio & Video /Televisions/TV Accessories/TV Stands & Mounts","base","GENERIC"
"Pop In Onion & Vegetable Chopper - White","Enabled","5.0000","3600.0000","<p><span>Chop vegetables, fruits, nuts or herbs with this chopper&nbsp;without breaking a sweat. A very handy tool to have in your kitchen with a perfect design for mincing food easily and quickly.</span><span>&nbsp;Order for the Onion &amp; Vegetable Chopper online now from Duukaan Kenya and have it delivered at your doorstep.</span></p>","	UN605HLABEJ1NAFAMZ","simple","<section>
<div class=""osh-tabs -center"">
<div id=""product-details"" class=""tab-content -active"">
<div class=""list -features"">
<ul>
<li>Twist and extra-sharp blades for easy chopping</li>
<li>The body is easy to clean</li>
<li>Onion chopper with comfortable-touch lid</li>
</ul>
</div>
<div class=""list -features"">
<div class=""title"">WHAT'S IN THE BOX</div>
<ul>
<li>Onion &amp; Vegetable Chopper</li>
</ul>
</div>
<div class=""osh-table -no-border"">
<div class=""caption"">SPECIFICATIONS OF ONION &amp; VEGETABLE CHOPPER - WHITE</div>
<div class=""osh-row "">
<div class=""osh-col -head"">SKU</div>
<div class=""osh-col "">UN605HLABEJ1NAFAMZ</div>
</div>
<div class=""osh-row "">
<div class=""osh-col -head"">Weight (kg)</div>
<div class=""osh-col "">1.15</div>
</div>
<div class=""osh-row "">
<div class=""osh-col -head"">Main material</div>
<div class=""osh-col "">Plastic</div>
</div>
</div>
</div>
</div>
</section>
<div class=""osh-fb-container"">
<section id=""richrelevance-5819b1eba17d3"" class=""osh-featured-box -sku -richrelevance -carousel""><header>
<p class=""headline"">Custome</p>
</header></section>
</div>","Food Choppers","1.1500","None","","","","Catalog, Search","Home & Living/Small Kitchen Appliances/Food Preparations/Food Choppers","base","POP IN"
"Cutty Sark 3 In 1 Vegetable Chopper - Green & White","Enabled","5.0000","3500.0000","<ul>
<li>Chop vegetables, fruits, nuts or herbs with this chopper without breaking a sweat.&nbsp;</li>
<li>Order for this item online and have it delievered to you right to your doorstep.</li>
<li>Easy to Clean</li>
<li>This chopper is easy to maintain and keep in proper hygiene conditions because all the parts are dish washable.</li>
</ul>","CU853HLABEAGNAFAMZ","simple","<div class=""list -features"">
<ul>
<li>Slice, dice or chop in one swift motion by closing lid</li>
<li>Reduces onion vapors to minimize tears in a storage container. Measures up to 2 cups or 500 ml</li>
<li>3 sharp inter-changeable stainless-steel blades for slicing, dicing and chopping. 1 cleaning tool included</li>
<li>BPA, PVC and Phthalate FREE. Top Rack Dishwasher Safe. Hand wash recommended</li>
</ul>
</div>
<div class=""list -features"">
<div class=""title"">WHAT'S IN THE BOX</div>
<ul>
<li>3 In 1 Vegetable Chopper - Green &amp; White</li>
</ul>
</div>
<div class=""osh-table -no-border"">
<div class=""caption"">SPECIFICATIONS OF 3 IN 1 VEGETABLE CHOPPER - GREEN &amp; WHITE</div>
<div class=""osh-row "">
<div class=""osh-col -head"">SKU</div>
<div class=""osh-col "">CU853HLABEAGNAFAMZ</div>
</div>
<div class=""osh-row "">
<div class=""osh-col -head"">Size (L x W x H cm)</div>
<div class=""osh-col "">11 x 4.5 x 3 inches</div>
</div>
<div class=""osh-row "">
<div class=""osh-col -head"">Weight (kg)</div>
<div class=""osh-col "">1.15</div>
</div>
<div class=""osh-row "">
<div class=""osh-col -head"">Main material</div>
<div class=""osh-col "">PVC</div>
</div>
</div>","Food Choppers","1.1500","None","","","","Catalog, Search","Home & Living/Small Kitchen Appliances/Food Preparations/Food Choppers","base","Cutty Sark"
"Generic TV Remote Control for Sony TV","Enabled","5.0000","2999.0000","<p><span>Replace your Sony tv remote control,&nbsp;&nbsp;replace it with a new genuine SONY TV remote control which is easy to use and compatible with most models.&nbsp;Compatible with SONY TV models: RM-887, RM-889, RM-890, RM-891, RM-892, RM-893, RM-916, RM-921, RM-933, RM-936, RM-938, RM-940. RM-943, RM-945, RM-W104, RM-Y173, RM-Y194</span></p>","	GE840EL1EEL00NAFAMZ","simple","<div class=""list -features"">
<ul>
<li>This is an O.E.M. Authorized part</li>
<li>Fits with various SONY brand models</li>
<li>Oem part #&nbsp;RM-W105</li>
<li>Durable</li>
<li>Use for all Sony tv</li>
<li>Easy to use</li>
</ul>
</div>
<div class=""list -features"">
<div class=""title"">WHAT'S IN THE BOX</div>
<ul>
<li>Remote Control</li>
</ul>
</div>
<div class=""osh-table -no-border"">
<div class=""caption"">SPECIFICATIONS OF TV REMOTE CONTROL FOR SONY TV</div>
<div class=""osh-row "">
<div class=""osh-col -head"">SKU</div>
<div class=""osh-col "">GE840EL1EEL00NAFAMZ</div>
</div>
<div class=""osh-row "">
<div class=""osh-col -head"">Size (L x W x H cm)</div>
<div class=""osh-col "">20 x 5 x 2.8</div>
</div>
<div class=""osh-row "">
<div class=""osh-col -head"">Weight (kg)</div>
<div class=""osh-col "">0.5</div>
</div>
<div class=""osh-row "">
<div class=""osh-col -head"">Main material</div>
<div class=""osh-col "">PVC</div>
</div>
<div class=""osh-row "">
<div class=""osh-col -head"">Product warranty</div>
<div class=""osh-col "">12-Months</div>
</div>
</div>","TV Remote Controls","0.5000","None","","","","Catalog, Search","Electronics/TV Audio & Video /Televisions/TV Accessories/TV Remote Controls","base","GENERIC"
"LG DVD Remote Control - Grey","Enabled","5.0000","2400.0000","<p><span>Replace your LG dvd remote control,&nbsp;&nbsp;replace it with a new genuine LG DVD remote control which is easy to use and compatible with most models.&nbsp;Compatible with LG DVD models: DK-477XB LG DVD, DKE-573XB LG DVD, DKE-574XB LG DVD, DKE-575XB LG DVD, DKE-577XB LG DVD, DKE-578XB</span></p>","LG835EL1046HCNAFAMZ","simple","<section>
<div class=""osh-tabs -center"">
<div id=""product-details"" class=""tab-content -active"">
<div class=""list -features"">
<ul>
<li>This is an O.E.M. Authorized part</li>
<li>Fits with various LG brand models</li>
<li>Oem part # 6711R1P070C</li>
<li>Durable</li>
<li>Use for all LG DVD</li>
<li>Easy to use</li>
</ul>
</div>
<div class=""list -features"">
<div class=""title"">WHAT'S IN THE BOX</div>
<ul>
<li>Remote control</li>
</ul>
</div>
<div class=""osh-table -no-border"">
<div class=""caption"">SPECIFICATIONS OF DVD REMOTE CONTROL - GREY</div>
<div class=""osh-row "">
<div class=""osh-col -head"">SKU</div>
<div class=""osh-col "">LG835EL1046HCNAFAMZ</div>
</div>
<div class=""osh-row "">
<div class=""osh-col -head"">Size (L x W x H cm)</div>
<div class=""osh-col "">16 x 5</div>
</div>
<div class=""osh-row "">
<div class=""osh-col -head"">Weight (kg)</div>
<div class=""osh-col "">0.3</div>
</div>
<div class=""osh-row "">
<div class=""osh-col -head"">Main material</div>
<div class=""osh-col "">PVC</div>
</div>
<div class=""osh-row "">
<div class=""osh-col -head"">Product warranty</div>
<div class=""osh-col "">12-Months</div>
</div>
</div>
</div>
</div>
</section>
<div class=""osh-fb-container"">
<section id=""richrelevance-5819bad483430"" class=""osh-featured-box -sku -richrelevance -carousel""><header>
<p class=""headline""></p>
</header></section>
</div>","TV Remote Controls","0.3000","None","","","","Catalog, Search","Electronics/TV Audio & Video /Televisions/TV Accessories/TV Remote Controls","base","LG"
"SONY BRAVIA TV Remote Control - Black","Enabled","5.0000","2999.0000","<p><span>Replace your Sony Bravia tv remote control,&nbsp;&nbsp;replace it with a new genuine SONY TV remote control which is easy to use and compatible with most models.&nbsp;Compatible with SONY TV models :&nbsp;BX Series, EX Series, NX Series, LX Series, HX Series, NSX Series, Android TV Series, EX420, EX430, EX550, EX520 full hd, EX645, EX650, EX720</span></p>","	SO521EL06IQ00NAFAMZ","simple","<div class=""list -features"">
<ul>
<li>This is an O.E.M. Authorized part</li>
<li>Fits with various SONY brand models</li>
<li>Oem part # RM-GD014</li>
<li>Durable</li>
<li>Use for all Sony Bravia tv</li>
<li>Easy to use</li>
</ul>
</div>
<div class=""list -features"">
<div class=""title"">WHAT'S IN THE BOX</div>
<ul>
<li>Remote control</li>
</ul>
</div>
<div class=""osh-table -no-border"">
<div class=""caption"">SPECIFICATIONS OF BRAVIA TV REMOTE CONTROL - BLACK</div>
<div class=""osh-row "">
<div class=""osh-col -head"">SKU</div>
<div class=""osh-col "">SO521EL06IQ00NAFAMZ</div>
</div>
<div class=""osh-row "">
<div class=""osh-col -head"">Size (L x W x H cm)</div>
<div class=""osh-col "">22 x 5.4 x 2</div>
</div>
<div class=""osh-row "">
<div class=""osh-col -head"">Weight (kg)</div>
<div class=""osh-col "">0.6</div>
</div>
<div class=""osh-row "">
<div class=""osh-col -head"">Main material</div>
<div class=""osh-col "">PVC</div>
</div>
</div>","TV Remote Controls","0.6000","None","","","","Catalog, Search","Electronics/TV Audio & Video /Televisions/TV Accessories/TV Remote Controls","base","SONY"
"LG DVD Remote Control - Black","Enabled","5.0000","2500.0000","<p><span>Having a remote with invisible numbers? replace it with a new genuine LG DVD remote control which is easy to use and compatible with most models.&nbsp;Compatible with LG DVD models : DP122, DP520, DP522, DP822, DP932, DVX340, DVX352, DVX380, DVX392, DVX440, DVX482, DVX552, DVX640 (&nbsp;DV-X440, DV-X340, DV-X352, DV-X380, DV-X382, DV-X350) and only requires 2 X AA batteries to operate.</span></p>","	LG835EL1F1Y1SNAFAMZ","simple","<div class=""list -features"">
<ul class=""a-vertical a-spacing-none"">
<li>This is an O.E.M. Authorized part</li>
<li>Fits with various LG brand models</li>
<li>Oem part # AKB33659510</li>
<li>Durable</li>
<li>Requires 2 X AA Batteries</li>
</ul>
</div>
<div class=""list -features"">
<div class=""title"">WHAT'S IN THE BOX</div>
<ol>
<li>Remote controll</li>
</ol></div>
<div class=""osh-table -no-border"">
<div class=""caption"">SPECIFICATIONS OF DVD REMOTE CONTROL - BLACK</div>
<div class=""osh-row "">
<div class=""osh-col -head"">SKU</div>
<div class=""osh-col "">LG835EL1F1Y1SNAFAMZ</div>
</div>
<div class=""osh-row "">
<div class=""osh-col -head"">Size (L x W x H cm)</div>
<div class=""osh-col "">6 x 2 x 1 inches</div>
</div>
<div class=""osh-row "">
<div class=""osh-col -head"">Weight (kg)</div>
<div class=""osh-col "">0.5</div>
</div>
<div class=""osh-row "">
<div class=""osh-col -head"">Main material</div>
<div class=""osh-col "">PVC</div>
</div>
<div class=""osh-row "">
<div class=""osh-col -head"">Product warranty</div>
<div class=""osh-col "">&nbsp;1 Year warranty</div>
</div>
</div>","TV Remote Controls","0.5000","None","","","","Catalog, Search","Electronics/TV Audio & Video /Televisions/TV Accessories/TV Remote Controls","base","LG"
"SKYLAND 26"" - 55"" - LCD Wall Mount - Black","Enabled","5.0000","3200.0000","<p><big>Looking for Flat Panel TV Wall Mount: The skyland flat TV wall mount is all you need. Mount your flat panel TV&nbsp;to the wall easily with this tilting mount that features a locking mechanism for secure installation and a fingertip tilt that allows for smooth movement and optimal viewing.</big></p>
<p>This Durable TV mount can be used to give an extra support to your TV. It is effective in shockproof function. By use of this TV mount under your TV, much of the vibrations in the TV can be stopped from transferring to the floor and this results in much less noise. It is a good accessory for your TV.</p>","SK503EL0CMLW8NAFAMZ","simple","<div class=""list -features"">
<ul>
<li>Fits most 26"" - 55"" flat panel TV</li>
<li>Load capacity: 50kg</li>
<li>Solid hot rolled plate construction</li>
<li>&nbsp;Easy to install&nbsp;</li>
</ul>
</div>
<div class=""list -features"">
<div class=""title"">WHAT'S IN THE BOX</div>
<ol>
<li>1pc Size 26""x55"" flat panel tv wall mount</li>
<li>full set of screws&nbsp;</li>
</ol></div>
<div class=""osh-table -no-border"">
<div class=""caption"">SPECIFICATIONS OF 26"" - 55"" - LCD WALL MOUNT - BLACK</div>
<div class=""osh-row "">
<div class=""osh-col -head"">SKU</div>
<div class=""osh-col "">SK503EL0CMLW8NAFAMZ</div>
</div>
<div class=""osh-row "">
<div class=""osh-col -head"">Size (L x W x H cm)</div>
<div class=""osh-col "">47cm x 43cm</div>
</div>
<div class=""osh-row "">
<div class=""osh-col -head"">Weight (kg)</div>
<div class=""osh-col "">4.2</div>
</div>
<div class=""osh-row "">
<div class=""osh-col -head"">Main material</div>
<div class=""osh-col "">Steel</div>
</div>
<div class=""osh-row "">
<div class=""osh-col -head"">Product warranty</div>
<div class=""osh-col "">12 months warranty</div>
</div>
</div>","TV Stands & Mounts","4.2000","None","","","","Catalog, Search","Electronics/TV Audio & Video /Televisions/TV Accessories/TV Stands & Mounts","base","SKYLAND"
"Lingqi DC to AC Power Inverter - 300W - Silver","Enabled","5.0000","6000.0000","<p>If you are looking for a realible DC-AC power inverter, then the 300W Lingqi DC to AC Power Inverter is the best deal for you. Ideally, it is compatible for all kinds of electric equipments with power consumption of less than 500W with voltages equal to AC 220V, such as cell-phone, portable computer, electric light, digital camera, TV, CD player, DVD, electric fan, electric tool and so on. The output is a universal socket, which can be used in many electrical installations.&nbsp;<span>Order for this DC-AC power inverter online on Duukaan and have it delivered to you now.</span></p>
<h2>Performance</h2>
<ul>
<li>Continuous Power: 300W</li>
<li>Peak Power: 600W</li>
<li>Maximum Efficiency Approx: 90%</li>
<li>Input Voltage: 10-15V DC</li>
<li>Output Voltage: 100-240V</li>
<li>Frequency: 50/60HZ</li>
<li>Wave Form: Modified sine wave form</li>
</ul>
<p><span>Safety</span></p>
<ul>
<li>Outlet: 220V EU outlet</li>
<li>Over Load Protection: YES</li>
<li>Short Circuit Protect: YES</li>
<li>Thermal Protection: 65&plusmn;5degrees Celsius</li>
<li>Low Voltage Alarm: 10.6V</li>
<li>Under Voltage Shutdown: 10.0V</li>
<li>Over Voltage Shutdown: 15.0V</li>
<li>High-speed Cooling Fan: YES</li>
</ul>","LI158ELABFZVNAFAMZ","simple","<div class=""list -features"">
<ul>
<li>300W, peak-600W</li>
<li>Input Voltage: 10-15V DC</li>
<li>Output Voltage: 100-240V</li>
<li>Under/Over - voltage shutdown</li>
</ul>
</div>
<div class=""list -features"">
<div class=""title"">WHAT'S IN THE BOX</div>
<ul>
<li>1 DC-AC power inverter</li>
</ul>
</div>
<div class=""osh-table -no-border"">
<div class=""caption"">SPECIFICATIONS OF DC TO AC POWER INVERTER - 300W - SILVER</div>
<div class=""osh-row "">
<div class=""osh-col -head"">SKU</div>
<div class=""osh-col "">LI158ELABFZVNAFAMZ</div>
</div>
<div class=""osh-row "">
<div class=""osh-col -head"">Size (L x W x H cm)</div>
<div class=""osh-col "">19&times;13&times;6</div>
</div>
<div class=""osh-row "">
<div class=""osh-col -head"">Weight (kg)</div>
<div class=""osh-col "">1.52</div>
</div>
<div class=""osh-row "">
<div class=""osh-col -head"">Main material</div>
<div class=""osh-col "">-</div>
</div>
<div class=""osh-row "">
<div class=""osh-col -head"">Product warranty</div>
<div class=""osh-col -head"">12 Months</div>
</div>
</div>","Voltage Regulators","1.5200","None","","","","Catalog, Search","Home & Living/Power Appliances/Voltage Regulators","base","LINGQI"
"SONY DVD Remote Control - Grey","Enabled","5.0000","2800.0000","<p><span>Replace your nonfunctional Sony DVD remote control&nbsp;with a new genuine Sony DVD remote control which is easy to use and compatible with most models.</span><br /><span>Compatible With:</span><span>SONY DVD models : DVP-NS41, DVP-NS41P,&nbsp;DVP-NS45P,&nbsp;DVP-NS47P,&nbsp;DVP-NS50,&nbsp;DVP-NS50P,&nbsp;DVP-NS50PB,&nbsp;DVP-NS50PS,&nbsp;DVP-NS55,&nbsp;DVP-NS55P,&nbsp;DVP-NS57,&nbsp;DVP-NS57P,&nbsp;DVP-NS57OOH,&nbsp;DVP-NS71HP,&nbsp;DVP-NS72HP,&nbsp;DVP-NS75H</span></p>","SO521EL0LL7BKNAFAMZ","simple","<div class=""list -features"">
<div class=""title"">KEY FEATURES</div>
<ul>
<li>This is an O.E.M. Authorized part</li>
<li>Fits with various Sony brand models</li>
<li>Oem part # RMT-D175</li>
<li>Durable</li>
<li>Easy for use</li>
<li>use for nost Sony dvd</li>
</ul>
</div>
<div class=""list -features"">
<div class=""title"">WHAT'S IN THE BOX</div>
<ul>
<li>Remote control</li>
</ul>
</div>
<div class=""osh-table -no-border"">
<div class=""caption"">SPECIFICATIONS OF DVD REMOTE CONTROL - GREY</div>
<div class=""osh-row "">
<div class=""osh-col -head"">SKU</div>
<div class=""osh-col "">&nbsp; &nbsp; &nbsp;SO521EL0LL7BKNAFAMZ</div>
</div>
<div class=""osh-row "">
<div class=""osh-col -head"">Size (L x W x H cm)</div>
<div class=""osh-col "">&nbsp; &nbsp; &nbsp;20 x 5 x 2.8</div>
</div>
<div class=""osh-row "">
<div class=""osh-col -head"">Weight (kg)</div>
<div class=""osh-col "">&nbsp; &nbsp; &nbsp;0.4</div>
</div>
<div class=""osh-row "">
<div class=""osh-col -head"">Main material</div>
<div class=""osh-col "">&nbsp; &nbsp; &nbsp;PVC</div>
</div>
</div>","TV Remote Controls","0.4000","None","","","","Catalog, Search","Electronics/TV Audio & Video /Televisions/TV Accessories/TV Remote Controls","base","SONY"
"DJACK DJ-Y3L - 3.1Ch - Sub-Woofer System - Bluetooth ","Enabled","2.0000","9000.0000","<p><span>Add surround sound to your home theater setup with this Djack DJ-Y3L sub woofer speaker system :The&nbsp;Djack DJ-Y3L performs like a pro, with technology developed by the Djack Professional division. Equipped with a tried-and-true Djack PolyPlas woofer, the&nbsp;Djack DJ-Y3L delivers unsurpassed high quality performance.&nbsp;</span><span>Order for this DJ-Y3L Speaker System online from Duukaan and have it delivered to you right to your doorstep.</span></p>","DJ-Y3L","simple","<ul>
<li>Bluetooth enable</li>
<li>3.1 Sub-woofer speaker</li>
<li>USB/ SD CARD SLOT&nbsp;</li>
<li>FM RADIO</li>
<li>LED Display</li>
<li>Compatible with DVD, CD, MPEG-4, MP3 &amp; WMA</li>
</ul>","Woofers","3.5000","VAT Included","","","","Catalog, Search","Electronics/TV Audio & Video /Audio/Home Entertainment/Woofers","base","DJACK"
